{
  "appearance": {
    "color_theme": "_builtin_default",
    "left_frame_width": 250
  },
  "color_picker": {
    "default_tab": 0
  },
  "cross_probing": {
    "auto_highlight": true,
    "center_on_items": true,
    "on_selection": true,
    "zoom_to_fit": true
  },
  "find_replace": {
    "find_history": [],
    "find_string": "",
    "match_case": false,
    "match_mode": 0,
    "replace_history": [],
    "replace_string": "",
    "search_and_replace": false
  },
  "graphics": {
    "canvas_type": 1,
    "highlight_factor": 0.5,
    "select_factor": 0.75
  },
  "lib_tree": {
    "column_widths": null,
    "columns": [],
    "open_libs": []
  },
  "meta": {
    "version": 0
  },
  "pcm": {
    "check_for_updates": true,
    "last_download_dir": "",
    "lib_auto_add": true,
    "lib_auto_remove": true,
    "lib_prefix": "PCM_",
    "repositories": [
      {
        "name": "KiCad official repository",
        "url": "https://repository.kicad.org/repository.json"
      }
    ]
  },
  "printing": {
    "background": false,
    "color_theme": "",
    "layers": [],
    "monochrome": true,
    "scale": 1.0,
    "title_block": false,
    "use_theme": false
  },
  "system": {
    "check_for_kicad_updates": true,
    "file_history": [],
    "first_run_shown": false,
    "last_imperial_units": 5,
    "last_metric_units": 1,
    "last_received_update": "",
    "last_update_check_time": "",
    "max_undo_items": 0,
    "open_projects": [
      ""
    ],
    "show_import_issues": true,
    "units": 1
  },
  "window": {
    "cursor": {
      "always_show_cursor": true,
      "fullscreen_cursor": false
    },
    "display": 0,
    "grid": {
      "axes_enabled": false,
      "fast_grid_1": 15,
      "fast_grid_2": 16,
      "last_size": 15,
      "line_width": 1.0,
      "min_spacing": 10.0,
      "override_connected": false,
      "override_connected_idx": 16,
      "override_graphics": false,
      "override_graphics_idx": 15,
      "override_text": false,
      "override_text_idx": 18,
      "override_vias": false,
      "override_vias_idx": 18,
      "override_wires": false,
      "override_wires_idx": 19,
      "overrides_enabled": false,
      "show": true,
      "sizes": [
        {
          "name": "",
          "x": "1000 mil",
          "y": "1000 mil"
        },
        {
          "name": "",
          "x": "500 mil",
          "y": "500 mil"
        },
        {
          "name": "",
          "x": "250 mil",
          "y": "250 mil"
        },
        {
          "name": "",
          "x": "200 mil",
          "y": "200 mil"
        },
        {
          "name": "",
          "x": "100 mil",
          "y": "100 mil"
        },
        {
          "name": "",
          "x": "50 mil",
          "y": "50 mil"
        },
        {
          "name": "",
          "x": "25 mil",
          "y": "25 mil"
        },
        {
          "name": "",
          "x": "20 mil",
          "y": "20 mil"
        },
        {
          "name": "",
          "x": "10 mil",
          "y": "10 mil"
        },
        {
          "name": "",
          "x": "5 mil",
          "y": "5 mil"
        },
        {
          "name": "",
          "x": "2 mil",
          "y": "2 mil"
        },
        {
          "name": "",
          "x": "1 mil",
          "y": "1 mil"
        },
        {
          "name": "",
          "x": "5.0 mm",
          "y": "5.0 mm"
        },
        {
          "name": "",
          "x": "2.5 mm",
          "y": "2.5 mm"
        },
        {
          "name": "",
          "x": "1.0 mm",
          "y": "1.0 mm"
        },
        {
          "name": "",
          "x": "0.5 mm",
          "y": "0.5 mm"
        },
        {
          "name": "",
          "x": "0.25 mm",
          "y": "0.25 mm"
        },
        {
          "name": "",
          "x": "0.2 mm",
          "y": "0.2 mm"
        },
        {
          "name": "",
          "x": "0.1 mm",
          "y": "0.1 mm"
        },
        {
          "name": "",
          "x": "0.05 mm",
          "y": "0.05 mm"
        },
        {
          "name": "",
          "x": "0.025 mm",
          "y": "0.025 mm"
        },
        {
          "name": "",
          "x": "0.01 mm",
          "y": "0.01 mm"
        }
      ],
      "snap": 0,
      "style": 0,
      "user_grid_x": "",
      "user_grid_y": ""
    },
    "maximized": false,
    "mru_path": "",
    "perspective": "layout2|name=MainToolbar;caption=;state=139596;dir=4;layer=2;row=0;pos=0;prop=100000;bestw=34;besth=227;minw=-1;minh=-1;maxw=-1;maxh=-1;floatx=-1;floaty=-1;floatw=-1;floath=-1|name=ProjectTree;caption=Project Files;state=1532;dir=4;layer=1;row=0;pos=0;prop=100000;bestw=200;besth=-1;minw=250;minh=-1;maxw=-1;maxh=-1;floatx=-1;floaty=-1;floatw=-1;floath=-1|name=Launcher;caption=Editors;state=508;dir=5;layer=0;row=0;pos=0;prop=100000;bestw=614;besth=650;minw=614;minh=650;maxw=-1;maxh=-1;floatx=-1;floaty=-1;floatw=-1;floath=-1|dock_size(4,2,0)=34|dock_size(4,1,0)=250|dock_size(5,0,0)=614|",
    "pos_x": 6,
    "pos_y": 30,
    "size_x": 1346,
    "size_y": 724,
    "zoom_factors": []
  }
}
