
# Stack traces obtained from PID 45395 - Thread 45395 #


This GDB supports auto-downloading debuginfo from the following URLs:
  <https://debuginfod.archlinux.org>
Enable debuginfod for this session? (y or [n]) [answered N; input not from terminal]
Debuginfod has been disabled.
To make this setting permanent, add 'set debuginfod enabled off' to .gdbinit.
[New LWP 45396]
[New LWP 45397]
[New LWP 45398]
[New LWP 45399]
[New LWP 45400]
[New LWP 45401]
[New LWP 45402]
[New LWP 45405]
[New LWP 45408]
[New LWP 45421]
[New LWP 45444]
[Thread debugging using libthread_db enabled]
Using host libthread_db library "/usr/lib/libthread_db.so.1".
0x00007f955f8cc6bc in read () from /usr/lib/libc.so.6
  Id   Target Id                                        Frame 
* 1    Thread 0x7f955e031180 (LWP 45395) "gimp-2.10"    0x00007f955f8cc6bc in read () from /usr/lib/libc.so.6
  2    Thread 0x7f955da746c0 (LWP 45396) "worker"       0x00007f955f8d788d in syscall () from /usr/lib/libc.so.6
  3    Thread 0x7f955d2736c0 (LWP 45397) "worker"       0x00007f955f8d788d in syscall () from /usr/lib/libc.so.6
  4    Thread 0x7f955ca726c0 (LWP 45398) "worker"       0x00007f955f8d788d in syscall () from /usr/lib/libc.so.6
  5    Thread 0x7f9557dc96c0 (LWP 45399) "pool-spawner" 0x00007f955f8d788d in syscall () from /usr/lib/libc.so.6
  6    Thread 0x7f95575c86c0 (LWP 45400) "gmain"        0x00007f955f8cc0bf in poll () from /usr/lib/libc.so.6
  7    Thread 0x7f9556dc76c0 (LWP 45401) "gdbus"        0x00007f955f8cc0bf in poll () from /usr/lib/libc.so.6
  8    Thread 0x7f952e3ff6c0 (LWP 45402) "async"        0x00007f955f8d788d in syscall () from /usr/lib/libc.so.6
  9    Thread 0x7f952d3fd6c0 (LWP 45405) "gimp-2.10"    0x00007f955f8d788d in syscall () from /usr/lib/libc.so.6
  10   Thread 0x7f951ffff6c0 (LWP 45408) "gimp-2.10"    0x00007f955f8d788d in syscall () from /usr/lib/libc.so.6
  11   Thread 0x7f952c8d76c0 (LWP 45421) "threaded-ml"  0x00007f955f8cc0bf in poll () from /usr/lib/libc.so.6
  12   Thread 0x7f951d1fb6c0 (LWP 45444) "swap writer"  0x00007f955f8d788d in syscall () from /usr/lib/libc.so.6

Thread 12 (Thread 0x7f951d1fb6c0 (LWP 45444) "swap writer"):
#0  0x00007f955f8d788d in syscall () at /usr/lib/libc.so.6
#1  0x00007f955fb94487 in g_cond_wait () at /usr/lib/libglib-2.0.so.0
#2  0x00007f95601185d2 in ??? () at /usr/lib/libgegl-0.4.so.0
#3  0x00007f955fb68065 in ??? () at /usr/lib/libglib-2.0.so.0
#4  0x00007f955f85c55a in ??? () at /usr/lib/libc.so.6
#5  0x00007f955f8d9a3c in ??? () at /usr/lib/libc.so.6

Thread 11 (Thread 0x7f952c8d76c0 (LWP 45421) "threaded-ml"):
#0  0x00007f955f8cc0bf in poll () at /usr/lib/libc.so.6
#1  0x00007f952e79e9b7 in ??? () at /usr/lib/libpulse.so.0
#2  0x00007f952e78845c in pa_mainloop_poll () at /usr/lib/libpulse.so.0
#3  0x00007f952e79261c in pa_mainloop_iterate () at /usr/lib/libpulse.so.0
#4  0x00007f952e7926d1 in pa_mainloop_run () at /usr/lib/libpulse.so.0
#5  0x00007f952e7a2bf2 in ??? () at /usr/lib/libpulse.so.0
#6  0x00007f951f3d42b7 in ??? () at /usr/lib/pulseaudio/libpulsecommon-17.0.so
#7  0x00007f955f85c55a in ??? () at /usr/lib/libc.so.6
#8  0x00007f955f8d9a3c in ??? () at /usr/lib/libc.so.6

Thread 10 (Thread 0x7f951ffff6c0 (LWP 45408) "gimp-2.10"):
#0  0x00007f955f8d788d in syscall () at /usr/lib/libc.so.6
#1  0x00007f955fb94487 in g_cond_wait () at /usr/lib/libglib-2.0.so.0
#2  0x00007f955fb04454 in ??? () at /usr/lib/libglib-2.0.so.0
#3  0x00007f955fb044bc in g_async_queue_pop () at /usr/lib/libglib-2.0.so.0
#4  0x00007f956057ec48 in ??? () at /usr/lib/libpangoft2-1.0.so.0
#5  0x00007f955fb68065 in ??? () at /usr/lib/libglib-2.0.so.0
#6  0x00007f955f85c55a in ??? () at /usr/lib/libc.so.6
#7  0x00007f955f8d9a3c in ??? () at /usr/lib/libc.so.6

Thread 9 (Thread 0x7f952d3fd6c0 (LWP 45405) "gimp-2.10"):
#0  0x00007f955f8d788d in syscall () at /usr/lib/libc.so.6
#1  0x00007f955fb94487 in g_cond_wait () at /usr/lib/libglib-2.0.so.0
#2  0x00007f955fb04454 in ??? () at /usr/lib/libglib-2.0.so.0
#3  0x00007f955fb044bc in g_async_queue_pop () at /usr/lib/libglib-2.0.so.0
#4  0x00007f956057ec48 in ??? () at /usr/lib/libpangoft2-1.0.so.0
#5  0x00007f955fb68065 in ??? () at /usr/lib/libglib-2.0.so.0
#6  0x00007f955f85c55a in ??? () at /usr/lib/libc.so.6
#7  0x00007f955f8d9a3c in ??? () at /usr/lib/libc.so.6

Thread 8 (Thread 0x7f952e3ff6c0 (LWP 45402) "async"):
#0  0x00007f955f8d788d in syscall () at /usr/lib/libc.so.6
#1  0x00007f955fb94487 in g_cond_wait () at /usr/lib/libglib-2.0.so.0
#2  0x00005b784e173d77 in ??? ()
#3  0x00007f955fb68065 in ??? () at /usr/lib/libglib-2.0.so.0
#4  0x00007f955f85c55a in ??? () at /usr/lib/libc.so.6
#5  0x00007f955f8d9a3c in ??? () at /usr/lib/libc.so.6

Thread 7 (Thread 0x7f9556dc76c0 (LWP 45401) "gdbus"):
#0  0x00007f955f8cc0bf in poll () at /usr/lib/libc.so.6
#1  0x00007f955fb99306 in ??? () at /usr/lib/libglib-2.0.so.0
#2  0x00007f955fb3adc7 in g_main_loop_run () at /usr/lib/libglib-2.0.so.0
#3  0x00007f955fdcf83c in ??? () at /usr/lib/libgio-2.0.so.0
#4  0x00007f955fb68065 in ??? () at /usr/lib/libglib-2.0.so.0
#5  0x00007f955f85c55a in ??? () at /usr/lib/libc.so.6
#6  0x00007f955f8d9a3c in ??? () at /usr/lib/libc.so.6

Thread 6 (Thread 0x7f95575c86c0 (LWP 45400) "gmain"):
#0  0x00007f955f8cc0bf in poll () at /usr/lib/libc.so.6
#1  0x00007f955fb99306 in ??? () at /usr/lib/libglib-2.0.so.0
#2  0x00007f955fb39712 in g_main_context_iteration () at /usr/lib/libglib-2.0.so.0
#3  0x00007f955fb39762 in ??? () at /usr/lib/libglib-2.0.so.0
#4  0x00007f955fb68065 in ??? () at /usr/lib/libglib-2.0.so.0
#5  0x00007f955f85c55a in ??? () at /usr/lib/libc.so.6
#6  0x00007f955f8d9a3c in ??? () at /usr/lib/libc.so.6

Thread 5 (Thread 0x7f9557dc96c0 (LWP 45399) "pool-spawner"):
#0  0x00007f955f8d788d in syscall () at /usr/lib/libc.so.6
#1  0x00007f955fb94487 in g_cond_wait () at /usr/lib/libglib-2.0.so.0
#2  0x00007f955fb04454 in ??? () at /usr/lib/libglib-2.0.so.0
#3  0x00007f955fb6929e in ??? () at /usr/lib/libglib-2.0.so.0
#4  0x00007f955fb68065 in ??? () at /usr/lib/libglib-2.0.so.0
#5  0x00007f955f85c55a in ??? () at /usr/lib/libc.so.6
#6  0x00007f955f8d9a3c in ??? () at /usr/lib/libc.so.6

Thread 4 (Thread 0x7f955ca726c0 (LWP 45398) "worker"):
#0  0x00007f955f8d788d in syscall () at /usr/lib/libc.so.6
#1  0x00007f955fb94487 in g_cond_wait () at /usr/lib/libglib-2.0.so.0
#2  0x00007f95600d6c94 in ??? () at /usr/lib/libgegl-0.4.so.0
#3  0x00007f955fb68065 in ??? () at /usr/lib/libglib-2.0.so.0
#4  0x00007f955f85c55a in ??? () at /usr/lib/libc.so.6
#5  0x00007f955f8d9a3c in ??? () at /usr/lib/libc.so.6

Thread 3 (Thread 0x7f955d2736c0 (LWP 45397) "worker"):
#0  0x00007f955f8d788d in syscall () at /usr/lib/libc.so.6
#1  0x00007f955fb94487 in g_cond_wait () at /usr/lib/libglib-2.0.so.0
#2  0x00007f95600d6c94 in ??? () at /usr/lib/libgegl-0.4.so.0
#3  0x00007f955fb68065 in ??? () at /usr/lib/libglib-2.0.so.0
#4  0x00007f955f85c55a in ??? () at /usr/lib/libc.so.6
#5  0x00007f955f8d9a3c in ??? () at /usr/lib/libc.so.6

Thread 2 (Thread 0x7f955da746c0 (LWP 45396) "worker"):
#0  0x00007f955f8d788d in syscall () at /usr/lib/libc.so.6
#1  0x00007f955fb94487 in g_cond_wait () at /usr/lib/libglib-2.0.so.0
#2  0x00007f95600d6c94 in ??? () at /usr/lib/libgegl-0.4.so.0
#3  0x00007f955fb68065 in ??? () at /usr/lib/libglib-2.0.so.0
#4  0x00007f955f85c55a in ??? () at /usr/lib/libc.so.6
#5  0x00007f955f8d9a3c in ??? () at /usr/lib/libc.so.6

Thread 1 (Thread 0x7f955e031180 (LWP 45395) "gimp-2.10"):
#0  0x00007f955f8cc6bc in read () at /usr/lib/libc.so.6
#1  0x00007f95605e5220 in gimp_stack_trace_print () at /usr/lib/libgimpbase-2.0.so.0
#2  0x00005b784de9e032 in ??? ()
#3  0x00005b784de9e3fe in gimp_fatal_error ()
#4  0x00005b784de9e462 in ??? ()
#5  0x00007f955f80d770 in <signal handler called> () at /usr/lib/libc.so.6
#6  0x00007f9560689279 in ??? () at /usr/lib/libgtk-x11-2.0.so.0
#7  0x00007f956068a28f in gtk_button_set_label () at /usr/lib/libgtk-x11-2.0.so.0
#8  0x00007f955fc4f279 in ??? () at /usr/lib/libgobject-2.0.so.0
#9  0x00007f955fc5252f in g_object_set_valist () at /usr/lib/libgobject-2.0.so.0
#10 0x00007f955fc529b9 in g_object_set () at /usr/lib/libgobject-2.0.so.0
#11 0x00005b784deef93a in ??? ()
#12 0x00007f955fc3e730 in g_closure_invoke () at /usr/lib/libgobject-2.0.so.0
#13 0x00007f955fc6d896 in ??? () at /usr/lib/libgobject-2.0.so.0
#14 0x00007f955fc5e7a2 in ??? () at /usr/lib/libgobject-2.0.so.0
#15 0x00007f955fc5e9d7 in g_signal_emit_valist () at /usr/lib/libgobject-2.0.so.0
#16 0x00007f955fc5ea94 in g_signal_emit () at /usr/lib/libgobject-2.0.so.0
#17 0x00005b784e199250 in gimp_container_remove ()
#18 0x00005b784e219996 in ??? ()
#19 0x00005b784e198da5 in gimp_container_clear ()
#20 0x00005b784e19a02e in ??? ()
#21 0x00007f955fc4d4ee in g_object_unref () at /usr/lib/libgobject-2.0.so.0
#22 0x00005b784dee7598 in ??? ()
#23 0x00007f955fc48217 in ??? () at /usr/lib/libgobject-2.0.so.0
#24 0x00007f955fb191e2 in ??? () at /usr/lib/libglib-2.0.so.0
#25 0x00007f955fc4a505 in ??? () at /usr/lib/libgobject-2.0.so.0
#26 0x00007f955fc4d7d5 in g_object_run_dispose () at /usr/lib/libgobject-2.0.so.0
#27 0x00005b784deef997 in ??? ()
#28 0x00007f955fc3e730 in g_closure_invoke () at /usr/lib/libgobject-2.0.so.0
#29 0x00007f955fc6d896 in ??? () at /usr/lib/libgobject-2.0.so.0
#30 0x00007f955fc5e7a2 in ??? () at /usr/lib/libgobject-2.0.so.0
#31 0x00007f955fc5e9d7 in g_signal_emit_valist () at /usr/lib/libgobject-2.0.so.0
#32 0x00007f955fc5ea94 in g_signal_emit () at /usr/lib/libgobject-2.0.so.0
#33 0x00007f955fc3e730 in g_closure_invoke () at /usr/lib/libgobject-2.0.so.0
#34 0x00007f955fc6d896 in ??? () at /usr/lib/libgobject-2.0.so.0
#35 0x00007f955fc5e7a2 in ??? () at /usr/lib/libgobject-2.0.so.0
#36 0x00007f955fc5e9d7 in g_signal_emit_valist () at /usr/lib/libgobject-2.0.so.0
#37 0x00007f955fc5ea94 in g_signal_emit () at /usr/lib/libgobject-2.0.so.0
#38 0x00007f95606897ce in ??? () at /usr/lib/libgtk-x11-2.0.so.0
#39 0x00007f9560738f08 in ??? () at /usr/lib/libgtk-x11-2.0.so.0
#40 0x00007f955fc3e730 in g_closure_invoke () at /usr/lib/libgobject-2.0.so.0
#41 0x00007f955fc6df4a in ??? () at /usr/lib/libgobject-2.0.so.0
#42 0x00007f955fc5e095 in ??? () at /usr/lib/libgobject-2.0.so.0
#43 0x00007f955fc5e9d7 in g_signal_emit_valist () at /usr/lib/libgobject-2.0.so.0
#44 0x00007f955fc5ea94 in g_signal_emit () at /usr/lib/libgobject-2.0.so.0
#45 0x00007f956086d88d in ??? () at /usr/lib/libgtk-x11-2.0.so.0
#46 0x00007f956073d777 in gtk_propagate_event () at /usr/lib/libgtk-x11-2.0.so.0
#47 0x00007f956073ed73 in gtk_main_do_event () at /usr/lib/libgtk-x11-2.0.so.0
#48 0x00007f9560b39dbc in ??? () at /usr/lib/libgdk-x11-2.0.so.0
#49 0x00007f955fb3a199 in ??? () at /usr/lib/libglib-2.0.so.0
#50 0x00007f955fb993bf in ??? () at /usr/lib/libglib-2.0.so.0
#51 0x00007f955fb3adc7 in g_main_loop_run () at /usr/lib/libglib-2.0.so.0
#52 0x00005b784dea2d73 in app_run ()
#53 0x00005b784de98662 in main ()
[Inferior 1 (process 45395) detached]
